Lab 4: Applied Bayesian Inference
…
From the tidybayes package:

mod %>% gather_draws(b_Intercept, b_HeightC, sigma)

# A tibble: 12,000 × 5
# Groups:   .variable [3]
   .chain .iteration .draw .variable   .value
    <int>      <int> <int> <chr>        <dbl>
 1      1          1     1 b_Intercept   69.6
 2      1          2     2 b_Intercept   69.6
 3      1          3     3 b_Intercept   69.2
 4      1          4     4 b_Intercept   69.4
 5      1          5     5 b_Intercept   69.1
 6      1          6     6 b_Intercept   69.6
 7      1          7     7 b_Intercept   68.9
 8      1          8     8 b_Intercept   68.9
 9      1          9     9 b_Intercept   68.9
10      1         10    10 b_Intercept   70.0
# ℹ 11,990 more rows
…
